…
## # A tibble: 8 x 2
## # Groups:   B_GYFSE [8]
##   B_GYFSE     n
##     <dbl> <int>
## 1       0    77
## 2       1    33
## 3       2    14
## 4       3    14
## 5       4     9
## 6       5    12
## 7       6     6
## 8       7     1

## # A tibble: 21 x 3
## # Groups:   B_GYFSE, SEDE PRESENCIA NACIONAL [21]
##    B_GYFSE `SEDE PRESENCIA NACIONAL`     n
##    <chr>   <chr>                     <int>
##  1 0       SEDE AMAZONÍA                31
##  2 0       SEDE CARIBE                  18
##  3 0       SEDE ORINOQUÍA               28
##  4 1       SEDE AMAZONÍA                 6
##  5 1       SEDE CARIBE                   8
##  6 1       SEDE ORINOQUÍA               19
##  7 2       SEDE AMAZONÍA                 2
##  8 2       SEDE CARIBE                   3
##  9 2       SEDE ORINOQUÍA                9
## 10 3       SEDE AMAZONÍA                 6
## # ... with 11 more rows

## # A tibble: 21 x 5
## # Groups:   B_GYFSE [8]
##    B_GYFSE `SEDE PRESENCIA NACIONAL`     n     N Porcentaje
##    <chr>   <chr>                     <int> <int>      <dbl>
##  1 0       SEDE AMAZONÍA                31    59       0.53
##  2 0       SEDE CARIBE                  18    33       0.55
##  3 0       SEDE ORINOQUÍA               28    74       0.38
##  4 1       SEDE AMAZONÍA                 6    59       0.1 
##  5 1       SEDE CARIBE                   8    33       0.24
##  6 1       SEDE ORINOQUÍA               19    74       0.26
##  7 2       SEDE AMAZONÍA                 2    59       0.03
##  8 2       SEDE CARIBE                   3    33       0.09
##  9 2       SEDE ORINOQUÍA                9    74       0.12
## 10 3       SEDE AMAZONÍA                 6    59       0.1 
## # ... with 11 more rows
…
## # A tibble: 7 x 2
## # Groups:   B_SALUD [7]
##   B_SALUD     n
##     <dbl> <int>
## 1       0    53
## 2       1    38
## 3       2    22
## 4       3    22
## 5       4    11
## 6       5    13
## 7       6     7

## # A tibble: 21 x 3
## # Groups:   B_SALUD, SEDE PRESENCIA NACIONAL [21]
##    B_SALUD `SEDE PRESENCIA NACIONAL`     n
##    <chr>   <chr>                     <int>
##  1 0       SEDE AMAZONÍA                20
##  2 0       SEDE CARIBE                  14
##  3 0       SEDE ORINOQUÍA               19
##  4 1       SEDE AMAZONÍA                12
##  5 1       SEDE CARIBE                   6
##  6 1       SEDE ORINOQUÍA               20
##  7 2       SEDE AMAZONÍA                 8
##  8 2       SEDE CARIBE                   2
##  9 2       SEDE ORINOQUÍA               12
## 10 3       SEDE AMAZONÍA                 8
## # ... with 11 more rows

## # A tibble: 21 x 5
## # Groups:   B_SALUD [7]
##    B_SALUD `SEDE PRESENCIA NACIONAL`     n     N Porcentaje
##    <chr>   <chr>                     <int> <int>      <dbl>
##  1 0       SEDE AMAZONÍA                20    59       0.34
##  2 0       SEDE CARIBE                  14    33       0.42
##  3 0       SEDE ORINOQUÍA               19    74       0.26
##  4 1       SEDE AMAZONÍA                12    59       0.2 
##  5 1       SEDE CARIBE                   6    33       0.18
##  6 1       SEDE ORINOQUÍA               20    74       0.27
##  7 2       SEDE AMAZONÍA                 8    59       0.14
##  8 2       SEDE CARIBE                   2    33       0.06
##  9 2       SEDE ORINOQUÍA               12    74       0.16
## 10 3       SEDE AMAZONÍA                 8    59       0.14
## # ... with 11 more rows
…
