10.12 Cantidad de participaciones

## # A tibble: 7 x 2
## # Groups:   B_Acomp_int [7]
##   B_Acomp_int     n
##         <dbl> <int>
## 1           0   116
## 2           1   147
## 3           2    75
## 4           3    35
## 5           4    17
## 6           5    13
## 7           6     5

## # A tibble: 25 x 3
## # Groups:   B_Acomp_int, SUBACCESO [25]
##    B_Acomp_int SUBACCESO                                    n
##    <chr>       <chr>                                    <int>
##  1 0           Comunidades indígenas                       16
##  2 0           Mejores bachilleres                         20
##  3 0           Mejores bachilleres de municipios pobres    52
##  4 0           Población afrocolombiana                    28
##  5 1           Comunidades indígenas                       47
##  6 1           Mejores bachilleres                         21
##  7 1           Mejores bachilleres de municipios pobres    45
##  8 1           Población afrocolombiana                    34
##  9 2           Comunidades indígenas                       21
## 10 2           Mejores bachilleres                          8
## # ... with 15 more rows

## # A tibble: 25 x 5
## # Groups:   B_Acomp_int [7]
##    B_Acomp_int SUBACCESO                                n     N Porcentaje
##    <chr>       <chr>                                <int> <int>      <dbl>
##  1 0           Comunidades indígenas                   16   111      0.14 
##  2 0           Mejores bachilleres                     20    56      0.36 
##  3 0           Mejores bachilleres de municipios p~    52   146      0.36 
##  4 0           Población afrocolombiana                28    95      0.290
##  5 1           Comunidades indígenas                   47   111      0.42 
##  6 1           Mejores bachilleres                     21    56      0.38 
##  7 1           Mejores bachilleres de municipios p~    45   146      0.31 
##  8 1           Población afrocolombiana                34    95      0.36 
##  9 2           Comunidades indígenas                   21   111      0.19 
## 10 2           Mejores bachilleres                      8    56      0.14 
## # ... with 15 more rows
…
## # A tibble: 6 x 2
## # Groups:   B_Acomp_int_vid_universit [6]
##   B_Acomp_int_vid_universit     n
##                       <dbl> <int>
## 1                         0   157
## 2                         1   160
## 3                         2    53
## 4                         3    21
## 5                         4    10
## 6                         5     7

## # A tibble: 23 x 3
## # Groups:   B_Acomp_int_vid_universit, SUBACCESO [23]
##    B_Acomp_int_vid_universit SUBACCESO                                   n
##    <chr>                     <chr>                                   <int>
##  1 0                         Comunidades indígenas                      21
##  2 0                         Mejores bachilleres                        27
##  3 0                         Mejores bachilleres de municipios pobr~    74
##  4 0                         Población afrocolombiana                   35
##  5 1                         Comunidades indígenas                      54
##  6 1                         Mejores bachilleres                        22
##  7 1                         Mejores bachilleres de municipios pobr~    45
##  8 1                         Población afrocolombiana                   39
##  9 2                         Comunidades indígenas                      20
## 10 2                         Mejores bachilleres                         4
## # ... with 13 more rows

## # A tibble: 23 x 5
## # Groups:   B_Acomp_int_vid_universit [6]
##    B_Acomp_int_vid_universit SUBACCESO                  n     N Porcentaje
##    <chr>                     <chr>                  <int> <int>      <dbl>
##  1 0                         Comunidades indígenas     21   111       0.19
##  2 0                         Mejores bachilleres       27    56       0.48
##  3 0                         Mejores bachilleres d~    74   146       0.51
##  4 0                         Población afrocolombi~    35    95       0.37
##  5 1                         Comunidades indígenas     54   111       0.49
##  6 1                         Mejores bachilleres       22    56       0.39
##  7 1                         Mejores bachilleres d~    45   146       0.31
##  8 1                         Población afrocolombi~    39    95       0.41
##  9 2                         Comunidades indígenas     20   111       0.18
## 10 2                         Mejores bachilleres        4    56       0.07
## # ... with 13 more rows
…
## # A tibble: 7 x 2
## # Groups:   B_GYFSE [7]
##   B_GYFSE     n
##     <dbl> <int>
## 1       0   224
## 2       1    49
## 3       2    29
## 4       3    21
## 5       4    32
## 6       5    33
## 7       6    20

## # A tibble: 26 x 3
## # Groups:   B_GYFSE, SUBACCESO [26]
##    B_GYFSE SUBACCESO                                    n
##    <chr>   <chr>                                    <int>
##  1 0       Comunidades indígenas                       53
##  2 0       Mejores bachilleres                         51
##  3 0       Mejores bachilleres de municipios pobres    71
##  4 0       Población afrocolombiana                    49
##  5 1       Comunidades indígenas                       11
##  6 1       Mejores bachilleres                          2
##  7 1       Mejores bachilleres de municipios pobres    17
##  8 1       Población afrocolombiana                    19
##  9 2       Comunidades indígenas                       11
## 10 2       Mejores bachilleres                          1
## # ... with 16 more rows

## # A tibble: 26 x 5
## # Groups:   B_GYFSE [7]
##    B_GYFSE SUBACCESO                                    n     N Porcentaje
##    <chr>   <chr>                                    <int> <int>      <dbl>
##  1 0       Comunidades indígenas                       53   111       0.48
##  2 0       Mejores bachilleres                         51    56       0.91
##  3 0       Mejores bachilleres de municipios pobres    71   146       0.49
##  4 0       Población afrocolombiana                    49    95       0.52
##  5 1       Comunidades indígenas                       11   111       0.1 
##  6 1       Mejores bachilleres                          2    56       0.04
##  7 1       Mejores bachilleres de municipios pobres    17   146       0.12
##  8 1       Población afrocolombiana                    19    95       0.2 
##  9 2       Comunidades indígenas                       11   111       0.1 
## 10 2       Mejores bachilleres                          1    56       0.02
## # ... with 16 more rows
…
## # A tibble: 7 x 2
## # Groups:   B_GYFSE_ALIM [7]
##   B_GYFSE_ALIM     n
##          <dbl> <int>
## 1            0   285
## 2            1    33
## 3            2    20
## 4            3    24
## 5            4    25
## 6            5    12
## 7            6     9

## # A tibble: 24 x 3
## # Groups:   B_GYFSE_ALIM, SUBACCESO [24]
##    B_GYFSE_ALIM SUBACCESO                                    n
##    <chr>        <chr>                                    <int>
##  1 0            Comunidades indígenas                       71
##  2 0            Mejores bachilleres                         54
##  3 0            Mejores bachilleres de municipios pobres    94
##  4 0            Población afrocolombiana                    66
##  5 1            Comunidades indígenas                        8
##  6 1            Mejores bachilleres de municipios pobres    14
##  7 1            Población afrocolombiana                    11
##  8 2            Comunidades indígenas                        9
##  9 2            Mejores bachilleres                          1
## 10 2            Mejores bachilleres de municipios pobres     5
## # ... with 14 more rows

## # A tibble: 24 x 5
## # Groups:   B_GYFSE_ALIM [7]
##    B_GYFSE_ALIM SUBACCESO                               n     N Porcentaje
##    <chr>        <chr>                               <int> <int>      <dbl>
##  1 0            Comunidades indígenas                  71   111       0.64
##  2 0            Mejores bachilleres                    54    56       0.96
##  3 0            Mejores bachilleres de municipios ~    94   146       0.64
##  4 0            Población afrocolombiana               66    95       0.69
##  5 1            Comunidades indígenas                   8   111       0.07
##  6 1            Mejores bachilleres de municipios ~    14   146       0.1 
##  7 1            Población afrocolombiana               11    95       0.12
##  8 2            Comunidades indígenas                   9   111       0.08
##  9 2            Mejores bachilleres                     1    56       0.02
## 10 2            Mejores bachilleres de municipios ~     5   146       0.03
## # ... with 14 more rows
…
## # A tibble: 7 x 2
## # Groups:   B_SALUD [7]
##   B_SALUD     n
##     <dbl> <int>
## 1       0    46
## 2       1   135
## 3       2    57
## 4       3    61
## 5       4    55
## 6       5    37
## 7       6    17

## # A tibble: 28 x 3
## # Groups:   B_SALUD, SUBACCESO [28]
##    B_SALUD SUBACCESO                                    n
##    <chr>   <chr>                                    <int>
##  1 0       Comunidades indígenas                       13
##  2 0       Mejores bachilleres                          9
##  3 0       Mejores bachilleres de municipios pobres    16
##  4 0       Población afrocolombiana                     8
##  5 1       Comunidades indígenas                       39
##  6 1       Mejores bachilleres                         15
##  7 1       Mejores bachilleres de municipios pobres    37
##  8 1       Población afrocolombiana                    44
##  9 2       Comunidades indígenas                       16
## 10 2       Mejores bachilleres                         10
## # ... with 18 more rows

## # A tibble: 28 x 5
## # Groups:   B_SALUD [7]
##    B_SALUD SUBACCESO                                    n     N Porcentaje
##    <chr>   <chr>                                    <int> <int>      <dbl>
##  1 0       Comunidades indígenas                       13   111       0.12
##  2 0       Mejores bachilleres                          9    56       0.16
##  3 0       Mejores bachilleres de municipios pobres    16   146       0.11
##  4 0       Población afrocolombiana                     8    95       0.08
##  5 1       Comunidades indígenas                       39   111       0.35
##  6 1       Mejores bachilleres                         15    56       0.27
##  7 1       Mejores bachilleres de municipios pobres    37   146       0.25
##  8 1       Población afrocolombiana                    44    95       0.46
##  9 2       Comunidades indígenas                       16   111       0.14
## 10 2       Mejores bachilleres                         10    56       0.18
## # ... with 18 more rows
…
## # A tibble: 6 x 2
## # Groups:   B_SALUD_aten_prima_urgen [6]
##   B_SALUD_aten_prima_urgen     n
##                      <dbl> <int>
## 1                        0   266
## 2                        1    76
## 3                        2    37
## 4                        3    12
## 5                        4    10
## 6                        5     7

## # A tibble: 21 x 3
## # Groups:   B_SALUD_aten_prima_urgen, SUBACCESO [21]
##    B_SALUD_aten_prima_urgen SUBACCESO                                    n
##    <chr>                    <chr>                                    <int>
##  1 0                        Comunidades indígenas                       78
##  2 0                        Mejores bachilleres                         42
##  3 0                        Mejores bachilleres de municipios pobres    81
##  4 0                        Población afrocolombiana                    65
##  5 1                        Comunidades indígenas                       15
##  6 1                        Mejores bachilleres                         11
##  7 1                        Mejores bachilleres de municipios pobres    33
##  8 1                        Población afrocolombiana                    17
##  9 2                        Comunidades indígenas                       11
## 10 2                        Mejores bachilleres                          2
## # ... with 11 more rows

## # A tibble: 21 x 5
## # Groups:   B_SALUD_aten_prima_urgen [6]
##    B_SALUD_aten_prima_urgen SUBACCESO                   n     N Porcentaje
##    <chr>                    <chr>                   <int> <int>      <dbl>
##  1 0                        Comunidades indígenas      78   111       0.7 
##  2 0                        Mejores bachilleres        42    56       0.75
##  3 0                        Mejores bachilleres de~    81   146       0.55
##  4 0                        Población afrocolombia~    65    95       0.68
##  5 1                        Comunidades indígenas      15   111       0.14
##  6 1                        Mejores bachilleres        11    56       0.2 
##  7 1                        Mejores bachilleres de~    33   146       0.23
##  8 1                        Población afrocolombia~    17    95       0.18
##  9 2                        Comunidades indígenas      11   111       0.1 
## 10 2                        Mejores bachilleres         2    56       0.04
## # ... with 11 more rows
…
## # A tibble: 7 x 2
## # Groups:   B_SALUD_p_y_p [7]
##   B_SALUD_p_y_p     n
##           <dbl> <int>
## 1             0    94
## 2             1   146
## 3             2    61
## 4             3    42
## 5             4    42
## 6             5    19
## 7             6     4

## # A tibble: 25 x 3
## # Groups:   B_SALUD_p_y_p, SUBACCESO [25]
##    B_SALUD_p_y_p SUBACCESO                                    n
##    <chr>         <chr>                                    <int>
##  1 0             Comunidades indígenas                       17
##  2 0             Mejores bachilleres                         20
##  3 0             Mejores bachilleres de municipios pobres    36
##  4 0             Población afrocolombiana                    21
##  5 1             Comunidades indígenas                       49
##  6 1             Mejores bachilleres                         19
##  7 1             Mejores bachilleres de municipios pobres    42
##  8 1             Población afrocolombiana                    36
##  9 2             Comunidades indígenas                       14
## 10 2             Mejores bachilleres                          9
## # ... with 15 more rows

## # A tibble: 25 x 5
## # Groups:   B_SALUD_p_y_p [7]
##    B_SALUD_p_y_p SUBACCESO                              n     N Porcentaje
##    <chr>         <chr>                              <int> <int>      <dbl>
##  1 0             Comunidades indígenas                 17   111      0.15 
##  2 0             Mejores bachilleres                   20    56      0.36 
##  3 0             Mejores bachilleres de municipios~    36   146      0.25 
##  4 0             Población afrocolombiana              21    95      0.22 
##  5 1             Comunidades indígenas                 49   111      0.44 
##  6 1             Mejores bachilleres                   19    56      0.34 
##  7 1             Mejores bachilleres de municipios~    42   146      0.290
##  8 1             Población afrocolombiana              36    95      0.38 
##  9 2             Comunidades indígenas                 14   111      0.13 
## 10 2             Mejores bachilleres                    9    56      0.16 
## # ... with 15 more rows
…
## # A tibble: 7 x 2
## # Groups:   B_deport [7]
##   B_deport     n
##      <dbl> <int>
## 1        0   218
## 2        1    89
## 3        2    46
## 4        3    24
## 5        4    19
## 6        5    11
## 7        6     1

## # A tibble: 23 x 3
## # Groups:   B_deport, SUBACCESO [23]
##    B_deport SUBACCESO                                    n
##    <chr>    <chr>                                    <int>
##  1 0        Comunidades indígenas                       57
##  2 0        Mejores bachilleres                         31
##  3 0        Mejores bachilleres de municipios pobres    77
##  4 0        Población afrocolombiana                    53
##  5 1        Comunidades indígenas                       25
##  6 1        Mejores bachilleres                         17
##  7 1        Mejores bachilleres de municipios pobres    28
##  8 1        Población afrocolombiana                    19
##  9 2        Comunidades indígenas                       14
## 10 2        Mejores bachilleres                          7
## # ... with 13 more rows

## # A tibble: 23 x 5
## # Groups:   B_deport [7]
##    B_deport SUBACCESO                                   n     N Porcentaje
##    <chr>    <chr>                                   <int> <int>      <dbl>
##  1 0        Comunidades indígenas                      57   111       0.51
##  2 0        Mejores bachilleres                        31    56       0.55
##  3 0        Mejores bachilleres de municipios pobr~    77   146       0.53
##  4 0        Población afrocolombiana                   53    95       0.56
##  5 1        Comunidades indígenas                      25   111       0.23
##  6 1        Mejores bachilleres                        17    56       0.3 
##  7 1        Mejores bachilleres de municipios pobr~    28   146       0.19
##  8 1        Población afrocolombiana                   19    95       0.2 
##  9 2        Comunidades indígenas                      14   111       0.13
## 10 2        Mejores bachilleres                         7    56       0.12
## # ... with 13 more rows
…
## # A tibble: 7 x 2
## # Groups:   B_cultur [7]
##   B_cultur     n
##      <dbl> <int>
## 1        0   269
## 2        1    70
## 3        2    34
## 4        3    20
## 5        4    10
## 6        5     4
## 7        6     1

## # A tibble: 23 x 3
## # Groups:   B_cultur, SUBACCESO [23]
##    B_cultur SUBACCESO                                    n
##    <chr>    <chr>                                    <int>
##  1 0        Comunidades indígenas                       75
##  2 0        Mejores bachilleres                         40
##  3 0        Mejores bachilleres de municipios pobres    83
##  4 0        Población afrocolombiana                    71
##  5 1        Comunidades indígenas                       14
##  6 1        Mejores bachilleres                         13
##  7 1        Mejores bachilleres de municipios pobres    29
##  8 1        Población afrocolombiana                    14
##  9 2        Comunidades indígenas                       13
## 10 2        Mejores bachilleres                          1
## # ... with 13 more rows

## # A tibble: 23 x 5
## # Groups:   B_cultur [7]
##    B_cultur SUBACCESO                                   n     N Porcentaje
##    <chr>    <chr>                                   <int> <int>      <dbl>
##  1 0        Comunidades indígenas                      75   111      0.68 
##  2 0        Mejores bachilleres                        40    56      0.71 
##  3 0        Mejores bachilleres de municipios pobr~    83   146      0.570
##  4 0        Población afrocolombiana                   71    95      0.75 
##  5 1        Comunidades indígenas                      14   111      0.13 
##  6 1        Mejores bachilleres                        13    56      0.23 
##  7 1        Mejores bachilleres de municipios pobr~    29   146      0.2  
##  8 1        Población afrocolombiana                   14    95      0.15 
##  9 2        Comunidades indígenas                      13   111      0.12 
## 10 2        Mejores bachilleres                         1    56      0.02 
## # ... with 13 more rows
…
